{
    "cordova-plugin-whitelist": {
        "source": {
            "type": "registry",
            "id": "cordova-plugin-whitelist@1"
        },
        "is_top_level": true,
        "variables": {}
    },
    "com.cordova.plugins.cookiemaster": {
        "source": {
            "type": "git",
            "url": "https://github.com/kristianhristov/cordova-cookie-master.git",
            "subdir": "."
        },
        "is_top_level": true,
        "variables": {}
    }
}